APP_NAME RF_TEST

MRFNET 38

CHANNEL_OFFSET 4

HTTP_PORT    8800
LAND_PORT    8808
TEST_PORT    8809
CONSOLE_PORT    0


DEVICE MRFID=0x01 APP=host    DEVTYPE=host  ARCH=lnx
DEVICE MRFID=0x02 APP=default DEVTYPE=usbrf ARCH=cc430    BUILD=prod
DEVICE MRFID=0x20 APP=rftst   DEVTYPE=rf    ARCH=cc430    BUILD=prod
DEVICE MRFID=0x21 APP=rfmodtc DEVTYPE=rf    ARCH=cc430    BUILD=prod


SERVER rf_server.py
